#Macrocell     #Threshold [V]
1          0.010000
2          0.010000
3          0.010000
4          0.010000
5          0.010000
6          0.010000
7          0.010000
8          0.010000
9          0.010000
10          0.010000
11          0.010000
12          0.010000
13          0.010000
14          0.010000
15          0.010000
16          0.010000
17          0.010000
18          0.010000
19          0.010000
20          0.010000
21          0.010000
22          0.010000
23          0.010000
24          0.010000
25          0.010000
26          0.010000
27          0.010000
28          0.010000
29          0.010000
30          0.010000
31          0.010000
32          0.010000
33          0.010000
34          0.010000
35          0.010000
36          0.010000
37          0.010000
38          0.010000
39          0.010000
40          0.010000
41          0.010000
42          0.010000
43          0.010000
44          0.010000
45          0.010000
46          0.010000
47          0.010000
48          0.010000
49          0.010000
50          0.010000
51          0.010000
52          0.010000
53          0.010000
54          0.010000
55          0.010000
#Macrocell     #Rates [Hz]
1          2826086.000000
2          2826086.000000
3          3611111.000000
4          13000000.000000
5          5909090.000000
6          7222222.000000
7          1065573.000000
8          16250250.000000
9          5909090.000000
10          13000000.000000
11          10833333.000000
12          9285714.000000
13          5909090.000000
14          10833500.000000
15          16250250.000000
16          13000000.000000
17          5416666.000000
18          7222333.000000
19          10833833.000000
20          13000000.000000
21          13000000.000000
22          8125000.000000
23          9285714.000000
24          10833500.000000
25          10833333.000000
26          16250250.000000
27          16250250.000000
28          13000000.000000
29          13000000.000000
30          10833333.000000
31          10833333.000000
32          16250000.000000
33          6500000.000000
34          13000000.000000
35          13000200.000000
36          13000400.000000
37          10833666.000000
38          8125125.000000
39          7222222.000000
40          6500000.000000
41          13000000.000000
42          6500000.000000
43          10833666.000000
44          10833500.000000
45          9285857.000000
46          6500100.000000
47          9285714.000000
48          9285857.000000
49          8125125.000000
50          6500000.000000
51          7222222.000000
52          3611166.000000
53          4062500.000000
54          6500000.000000
55          9285714.000000
%56          0.000000
#Macrocell     #Threshold [V]
1          0.011885
2          0.011885
3          0.011885
4          0.011885
5          0.011885
6          0.011885
7          0.011885
8          0.011885
9          0.011885
10          0.011885
11          0.011885
12          0.011885
13          0.011885
14          0.011885
15          0.011885
16          0.011885
17          0.011885
18          0.011885
19          0.011885
20          0.011885
21          0.011885
22          0.011885
23          0.011885
24          0.011885
25          0.011885
26          0.011885
27          0.011885
28          0.011885
29          0.011885
30          0.011885
31          0.011885
32          0.011885
33          0.011885
34          0.011885
35          0.011885
36          0.011885
37          0.011885
38          0.011885
39          0.011885
40          0.011885
41          0.011885
42          0.011885
43          0.011885
44          0.011885
45          0.011885
46          0.011885
47          0.011885
48          0.011885
49          0.011885
50          0.011885
51          0.011885
52          0.011885
53          0.011885
54          0.011885
55          0.011885
#Macrocell     #Rates [Hz]
1          1805555.000000
2          1805555.000000
3          2321428.000000
4          13000000.000000
5          4333333.000000
6          5416666.000000
7          631077.000000
8          16250250.000000
9          4333333.000000
10          10833500.000000
11          8125000.000000
12          7222333.000000
13          4333333.000000
14          9285714.000000
15          16250500.000000
16          10833666.000000
17          3823529.000000
18          5909181.000000
19          8125000.000000
20          10833333.000000
21          10833333.000000
22          6500000.000000
23          7222222.000000
24          10833333.000000
25          9285857.000000
26          16250000.000000
27          16250000.000000
28          13000000.000000
29          13000200.000000
30          10833333.000000
31          9285857.000000
32          16250000.000000
33          5416666.000000
34          13000000.000000
35          13000000.000000
36          10833333.000000
37          10833333.000000
38          8125125.000000
39          5416666.000000
40          5416750.000000
41          10833500.000000
42          5000000.000000
43          9285714.000000
44          10833333.000000
45          8125000.000000
46          5000000.000000
47          9285714.000000
48          9286000.000000
49          8125125.000000
50          5000000.000000
51          6500100.000000
52          2600000.000000
53          2826130.000000
54          5416666.000000
55          8125000.000000
%56          0.000000
#Macrocell     #Threshold [V]
1          0.014125
2          0.014125
3          0.014125
4          0.014125
5          0.014125
6          0.014125
7          0.014125
8          0.014125
9          0.014125
10          0.014125
11          0.014125
12          0.014125
13          0.014125
14          0.014125
15          0.014125
16          0.014125
17          0.014125
18          0.014125
19          0.014125
20          0.014125
21          0.014125
22          0.014125
23          0.014125
24          0.014125
25          0.014125
26          0.014125
27          0.014125
28          0.014125
29          0.014125
30          0.014125
31          0.014125
32          0.014125
33          0.014125
34          0.014125
35          0.014125
36          0.014125
37          0.014125
38          0.014125
39          0.014125
40          0.014125
41          0.014125
42          0.014125
43          0.014125
44          0.014125
45          0.014125
46          0.014125
47          0.014125
48          0.014125
49          0.014125
50          0.014125
51          0.014125
52          0.014125
53          0.014125
54          0.014125
55          0.014125
#Macrocell     #Rates [Hz]
1          1083333.000000
2          1083333.000000
3          1326530.000000
4          10833500.000000
5          3095238.000000
6          3823529.000000
7          460992.000000
8          13000400.000000
9          3095238.000000
10          10833333.000000
11          5909090.000000
12          5000000.000000
13          2954545.000000
14          6500000.000000
15          13000200.000000
16          9285714.000000
17          2600040.000000
18          5000000.000000
19          5909090.000000
20          10833333.000000
21          9285714.000000
22          5000076.000000
23          5909181.000000
24          9285857.000000
25          7222222.000000
26          13000200.000000
27          13000200.000000
28          13000000.000000
29          10833333.000000
30          9285714.000000
31          8125125.000000
32          16250750.000000
33          3823588.000000
34          10833500.000000
35          10833333.000000
36          10833666.000000
37          8125000.000000
38          5909090.000000
39          4062500.000000
40          3823529.000000
41          9285857.000000
42          3421052.000000
43          7222222.000000
44          8125000.000000
45          7222222.000000
46          3823529.000000
47          8125125.000000
48          8125000.000000
49          7222222.000000
50          4062500.000000
51          5416666.000000
52          1857142.000000
53          1857142.000000
54          4333400.000000
55          6500000.000000
%56          0.000000
#Macrocell     #Threshold [V]
1          0.016788
2          0.016788
3          0.016788
4          0.016788
5          0.016788
6          0.016788
7          0.016788
8          0.016788
9          0.016788
10          0.016788
11          0.016788
12          0.016788
13          0.016788
14          0.016788
15          0.016788
16          0.016788
17          0.016788
18          0.016788
19          0.016788
20          0.016788
21          0.016788
22          0.016788
23          0.016788
24          0.016788
25          0.016788
26          0.016788
27          0.016788
28          0.016788
29          0.016788
30          0.016788
31          0.016788
32          0.016788
33          0.016788
34          0.016788
35          0.016788
36          0.016788
37          0.016788
38          0.016788
39          0.016788
40          0.016788
41          0.016788
42          0.016788
43          0.016788
44          0.016788
45          0.016788
46          0.016788
47          0.016788
48          0.016788
49          0.016788
50          0.016788
51          0.016788
52          0.016788
53          0.016788
54          0.016788
55          0.016788
#Macrocell     #Rates [Hz]
1          537190.000000
2          537190.000000
3          625000.000000
4          8125000.000000
5          1805555.000000
6          2321428.000000
7          190618.000000
8          13000000.000000
9          1805583.000000
10          9285714.000000
11          3823529.000000
12          2954545.000000
13          1666666.000000
14          3823529.000000
15          13000200.000000
16          6500000.000000
17          1444444.000000
18          3421052.000000
19          4062500.000000
20          9285714.000000
21          7222222.000000
22          3250000.000000
23          3611111.000000
24          8125000.000000
25          5909090.000000
26          13000000.000000
27          10833500.000000
28          13000400.000000
29          10833333.000000
30          9285714.000000
31          7222222.000000
32          16250000.000000
33          2407407.000000
34          9285714.000000
35          9285714.000000
36          9285857.000000
37          7222444.000000
38          5000000.000000
39          2826086.000000
40          2500000.000000
41          8125000.000000
42          1911764.000000
43          6500100.000000
44          6500000.000000
45          5909181.000000
46          2600000.000000
47          7222222.000000
48          7222333.000000
49          6500000.000000
50          0.000000
51          3823588.000000
52          1048387.000000
53          955882.000000
54          2954545.000000
55          5000000.000000
%56          0.000000
#Macrocell     #Threshold [V]
1          0.019953
2          0.019953
3          0.019953
4          0.019953
5          0.019953
6          0.019953
7          0.019953
8          0.019953
9          0.019953
10          0.019953
11          0.019953
12          0.019953
13          0.019953
14          0.019953
15          0.019953
16          0.019953
17          0.019953
18          0.019953
19          0.019953
20          0.019953
21          0.019953
22          0.019953
23          0.019953
24          0.019953
25          0.019953
26          0.019953
27          0.019953
28          0.019953
29          0.019953
30          0.019953
31          0.019953
32          0.019953
33          0.019953
34          0.019953
35          0.019953
36          0.019953
37          0.019953
38          0.019953
39          0.019953
40          0.019953
41          0.019953
42          0.019953
43          0.019953
44          0.019953
45          0.019953
46          0.019953
47          0.019953
48          0.019953
49          0.019953
50          0.019953
51          0.019953
52          0.019953
53          0.019953
54          0.019953
55          0.019953
#Macrocell     #Rates [Hz]
1          205047.000000
2          205047.000000
3          235507.000000
4          5909090.000000
5          984848.000000
6          1300020.000000
7          90782.000000
8          9285714.000000
9          955882.000000
10          8125000.000000
11          2321428.000000
12          1666666.000000
13          915492.000000
14          1969696.000000
15          10833333.000000
16          3823529.000000
17          722222.000000
18          2241379.000000
19          0.000000
20          7222222.000000
21          5416750.000000
22          1911764.000000
23          2166666.000000
24          5909090.000000
25          4062500.000000
26          10833500.000000
27          7222222.000000
28          13000000.000000
29          9285714.000000
30          7222222.000000
31          5416666.000000
32          13000000.000000
33          1354166.000000
34          8125250.000000
35          7222222.000000
36          8125000.000000
37          5416750.000000
38          3095238.000000
39          1756756.000000
40          0.000000
41          5909090.000000
42          915492.000000
43          4333400.000000
44          4333333.000000
45          4062500.000000
46          1625000.000000
47          5416666.000000
48          5909272.000000
49          5000000.000000
50          1857142.000000
51          2708333.000000
52          541666.000000
53          377906.000000
54          1805555.000000
55          3421105.000000
%56          0.000000
#Macrocell     #Rates [Hz]
1          220338.000000
2          220338.000000
3          246212.000000
4          5416666.000000
5          855263.000000
6          1120689.000000
7          87601.000000
8          8125000.000000
9          792682.000000
10          7222222.000000
11          2031250.000000
12          1477272.000000
13          764705.000000
14          1756756.000000
15          9285714.000000
16          3421052.000000
17          631067.000000
18          2031250.000000
19          2031250.000000
20          6500000.000000
21          5000000.000000
22          1710526.000000
23          1969727.000000
24          5416750.000000
25          3611111.000000
26          9285857.000000
27          6500000.000000
28          10833500.000000
29          8125125.000000
30          7222222.000000
31          5000000.000000
32          10833333.000000
33          1181818.000000
34          7222333.000000
35          6500000.000000
36          7222444.000000
37          4642857.000000
38          3250000.000000
39          1547619.000000
40          1382978.000000
41          5416666.000000
42          783132.000000
43          4333400.000000
44          3823529.000000
45          3823529.000000
46          1511627.000000
47          5000000.000000
48          5416666.000000
49          4643000.000000
50          1666666.000000
51          2500000.000000
52          488721.000000
53          373563.000000
54          1666666.000000
55          3095238.000000
%56          0.000000
#Macrocell     #Threshold [V]
1          0.023714
2          0.023714
3          0.023714
4          0.023714
5          0.023714
6          0.023714
7          0.023714
8          0.023714
9          0.023714
10          0.023714
11          0.023714
12          0.023714
13          0.023714
14          0.023714
15          0.023714
16          0.023714
17          0.023714
18          0.023714
19          0.023714
20          0.023714
21          0.023714
22          0.023714
23          0.023714
24          0.023714
25          0.023714
26          0.023714
27          0.023714
28          0.023714
29          0.023714
30          0.023714
31          0.023714
32          0.023714
33          0.023714
34          0.023714
35          0.023714
36          0.023714
37          0.023714
38          0.023714
39          0.023714
40          0.023714
41          0.023714
42          0.023714
43          0.023714
44          0.023714
45          0.023714
46          0.023714
47          0.023714
48          0.023714
49          0.023714
50          0.023714
51          0.023714
52          0.023714
53          0.023714
54          0.023714
55          0.023714
#Macrocell     #Rates [Hz]
1          67567.000000
2          67567.000000
3          72626.000000
4          3095333.000000
5          335051.000000
6          467625.000000
7          37055.000000
8          4642857.000000
9          276595.000000
10          5000076.000000
11          890410.000000
12          550847.000000
13          286343.000000
14          607485.000000
15          5909090.000000
16          1511627.000000
17          224913.000000
18          984863.000000
19          902777.000000
20          4333333.000000
21          3095238.000000
22          747126.000000
23          855263.000000
24          3611111.000000
25          2096774.000000
26          6500000.000000
27          3250000.000000
28          8125000.000000
29          5416666.000000
30          4642857.000000
31          2708333.000000
32          8125125.000000
33          488721.000000
34          5000000.000000
35          4333333.000000
36          5000000.000000
37          2954590.000000
38          1625000.000000
39          706521.000000
40          607476.000000
41          3611111.000000
42          267489.000000
43          2500000.000000
44          2031250.000000
45          2241379.000000
46          643564.000000
47          2954545.000000
48          3095285.000000
49          2954590.000000
50          902777.000000
51          1382978.000000
52          171052.000000
53          104669.000000
54          764705.000000
55          1547619.000000
%56          0.000000
#Macrocell     #Threshold [V]
1          0.028184
2          0.028184
3          0.028184
4          0.028184
5          0.028184
6          0.028184
7          0.028184
8          0.028184
9          0.028184
10          0.028184
11          0.028184
12          0.028184
13          0.028184
14          0.028184
15          0.028184
16          0.028184
17          0.028184
18          0.028184
19          0.028184
20          0.028184
21          0.028184
22          0.028184
23          0.028184
24          0.028184
25          0.028184
26          0.028184
27          0.028184
28          0.028184
29          0.028184
30          0.028184
31          0.028184
32          0.028184
33          0.028184
34          0.028184
35          0.028184
36          0.028184
37          0.028184
38          0.028184
39          0.028184
40          0.028184
41          0.028184
42          0.028184
43          0.028184
44          0.028184
45          0.028184
46          0.028184
47          0.028184
48          0.028184
49          0.028184
50          0.028184
51          0.028184
52          0.028184
53          0.028184
54          0.028184
55          0.028184
#Macrocell     #Rates [Hz]
1          31244.000000
2          31244.000000
3          34670.000000
4          1354166.000000
5          111301.000000
6          177111.000000
7          23303.000000
8          1756756.000000
9          88555.000000
10          2826086.000000
11          312500.000000
12          167525.000000
13          96582.000000
14          171055.000000
15          2500000.000000
16          424836.000000
17          80246.000000
18          375722.000000
19          302325.000000
20          2500000.000000
21          1547619.000000
22          262096.000000
23          291484.000000
24          1710526.000000
25          928571.000000
26          3095238.000000
27          1065573.000000
28          4642928.000000
29          2826086.000000
30          2096774.000000
31          1031746.000000
32          4333333.000000
33          170603.000000
34          2600000.000000
35          2166666.000000
36          2407444.000000
37          1326530.000000
38          619047.000000
39          285087.000000
40          204402.000000
41          1756756.000000
42          80049.000000
43          1065573.000000
44          915492.000000
45          890424.000000
46          221088.000000
47          1160714.000000
48          1274509.000000
49          1226415.000000
50          386904.000000
51          560344.000000
52          60567.000000
53          34396.000000
54          275423.000000
55          532786.000000
%56          0.000000
#Macrocell     #Threshold [V]
1          0.033497
2          0.033497
3          0.033497
4          0.033497
5          0.033497
6          0.033497
7          0.033497
8          0.033497
9          0.033497
10          0.033497
11          0.033497
12          0.033497
13          0.033497
14          0.033497
15          0.033497
16          0.033497
17          0.033497
18          0.033497
19          0.033497
20          0.033497
21          0.033497
22          0.033497
23          0.033497
24          0.033497
25          0.033497
26          0.033497
27          0.033497
28          0.033497
29          0.033497
30          0.033497
31          0.033497
32          0.033497
33          0.033497
34          0.033497
35          0.033497
36          0.033497
37          0.033497
38          0.033497
39          0.033497
40          0.033497
41          0.033497
42          0.033497
43          0.033497
44          0.033497
45          0.033497
46          0.033497
47          0.033497
48          0.033497
49          0.033497
50          0.033497
51          0.033497
52          0.033497
53          0.033497
54          0.033497
55          0.033497
#Macrocell     #Rates [Hz]
1          20023.000000
2          20023.000000
3          22251.000000
4          496183.000000
5          40402.000000
6          75231.000000
7          15057.000000
8          585585.000000
9          33866.000000
10          1413043.000000
11          91807.000000
12          49728.000000
13          39124.000000
14          55022.000000
15          833346.000000
16          108695.000000
17          29887.000000
18          152941.000000
19          89409.000000
20          1203703.000000
21          631067.000000
22          79852.000000
23          83655.000000
24          714296.000000
25          351351.000000
26          1226415.000000
27          296803.000000
28          2321428.000000
29          1203703.000000
30          755813.000000
31          315538.000000
32          1857142.000000
33          67567.000000
34          1181836.000000
35          878378.000000
36          1015625.000000
37          485074.000000
38          219594.000000
39          96870.000000
40          62263.000000
41          773821.000000
42          32242.000000
43          380116.000000
44          308061.000000
45          299539.000000
46          63401.000000
47          386904.000000
48          401234.000000
49          386904.000000
50          171506.000000
51          208346.000000
52          26818.000000
53          16139.000000
54          83979.000000
55          155880.000000
%56          0.000000
#Macrocell     #Threshold [V]
1          0.039811
2          0.039811
3          0.039811
4          0.039811
5          0.039811
6          0.039811
7          0.039811
8          0.039811
9          0.039811
10          0.039811
11          0.039811
12          0.039811
13          0.039811
14          0.039811
15          0.039811
16          0.039811
17          0.039811
18          0.039811
19          0.039811
20          0.039811
21          0.039811
22          0.039811
23          0.039811
24          0.039811
25          0.039811
26          0.039811
27          0.039811
28          0.039811
29          0.039811
30          0.039811
31          0.039811
32          0.039811
33          0.039811
34          0.039811
35          0.039811
36          0.039811
37          0.039811
38          0.039811
39          0.039811
40          0.039811
41          0.039811
42          0.039811
43          0.039811
44          0.039811
45          0.039811
46          0.039811
47          0.039811
48          0.039811
49          0.039811
50          0.039811
51          0.039811
52          0.039811
53          0.039811
54          0.039811
55          0.039811
#Macrocell     #Rates [Hz]
1          9254.000000
2          9254.000000
3          10029.000000
4          159313.000000
5          12389.000000
6          24999.000000
7          5958.000000
8          123106.000000
9          10259.000000
10          65000000.000000
11          20659.000000
12          11603.000000
13          13754.000000
14          17644.000000
15          181058.000000
16          20060.000000
17          9378.000000
18          37740.000000
19          22221.000000
20          391566.000000
21          192878.000000
22          17023.000000
23          16366.000000
24          218120.000000
25          83979.000000
26          291479.000000
27          63628.000000
28          764705.000000
29          309523.000000
30          172872.000000
31          58572.000000
32          520000.000000
33          23231.000000
34          329949.000000
35          232142.000000
36          280172.000000
37          158924.000000
38          43681.000000
39          30005.000000
40          10808.000000
41          251937.000000
42          10913.000000
43          91549.000000
44          76023.000000
45          63238.000000
46          11232.000000
47          68928.000000
48          79952.000000
49          73115.000000
50          51978.000000
51          48962.000000
52          9694.000000
53          6466.000000
54          19148.000000
55          23092.000000
%56          0.000000
#Macrocell     #Rates [Hz]
1          7544.000000
2          7544.000000
3          8005.000000
4          147727.000000
5          10124.000000
6          21703.000000
7          4711.000000
8          108877.000000
9          8123.000000
10          422077.000000
11          18829.000000
12          9987.000000
13          11233.000000
14          14384.000000
15          172413.000000
16          17513.000000
17          7794.000000
18          32737.000000
19          19571.000000
20          0.000000
21          201863.000000
22          15390.000000
23          14178.000000
24          209003.000000
25          78125.000000
26          294122.000000
27          58168.000000
28          890410.000000
29          306603.000000
30          158924.000000
31          56292.000000
32          520000.000000
33          18847.000000
34          328282.000000
35          224913.000000
36          269709.000000
37          134575.000000
38          42164.000000
39          25982.000000
40          9672.000000
41          230496.000000
42          8878.000000
43          87719.000000
44          67010.000000
45          60458.000000
46          9796.000000
47          65989.000000
48          71271.000000
49          67010.000000
50          45410.000000
51          45092.000000
52          7873.000000
53          4892.000000
54          16652.000000
55          21146.000000
%56          0.000000
#Macrocell     #Threshold [V]
1          0.047315
2          0.047315
3          0.047315
4          0.047315
5          0.047315
6          0.047315
7          0.047315
8          0.047315
9          0.047315
10          0.047315
11          0.047315
12          0.047315
13          0.047315
14          0.047315
15          0.047315
16          0.047315
17          0.047315
18          0.047315
19          0.047315
20          0.047315
21          0.047315
22          0.047315
23          0.047315
24          0.047315
25          0.047315
26          0.047315
27          0.047315
28          0.047315
29          0.047315
30          0.047315
31          0.047315
32          0.047315
33          0.047315
34          0.047315
35          0.047315
36          0.047315
37          0.047315
38          0.047315
39          0.047315
40          0.047315
41          0.047315
42          0.047315
43          0.047315
44          0.047315
45          0.047315
46          0.047315
47          0.047315
48          0.047315
49          0.047315
50          0.047315
51          0.047315
52          0.047315
53          0.047315
54          0.047315
55          0.047315
#Macrocell     #Rates [Hz]
1          5781.000000
2          5781.000000
3          5171.000000
4          44201.000000
5          6284.000000
6          12927.000000
7          3130.000000
8          29430.000000
9          4978.000000
10          2147483648.000000
11          8256.000000
12          4963.000000
13          7521.000000
14          9469.000000
15          35221.000000
16          6698.000000
17          4907.000000
18          17003.000000
19          9715.000000
20          136268.000000
21          50721.000000
22          5767.000000
23          5523.000000
24          56564.000000
25          21511.000000
26          57808.000000
27          23482.000000
28          248091.000000
29          62493.000000
30          31072.000000
31          13013.000000
32          126705.000000
33          14274.000000
34          79656.000000
35          45085.000000
36          62088.000000
37          43528.000000
38          10676.000000
39          14811.000000
40          2644.000000
41          68565.000000
42          5496.000000
43          24065.000000
44          21640.000000
45          14037.000000
46          2573.000000
47          13978.000000
48          19576.000000
49          13878.000000
50          25388.000000
51          14149.000000
52          5387.000000
53          3575.000000
54          7165.000000
55          4637.000000
%56          0.000000
#Macrocell     #Threshold [V]
1          0.056234
2          0.056234
3          0.056234
4          0.056234
5          0.056234
6          0.056234
7          0.056234
8          0.056234
9          0.056234
10          0.056234
11          0.056234
12          0.056234
13          0.056234
14          0.056234
15          0.056234
16          0.056234
17          0.056234
18          0.056234
19          0.056234
20          0.056234
21          0.056234
22          0.056234
23          0.056234
24          0.056234
25          0.056234
26          0.056234
27          0.056234
28          0.056234
29          0.056234
30          0.056234
31          0.056234
32          0.056234
33          0.056234
34          0.056234
35          0.056234
36          0.056234
37          0.056234
38          0.056234
39          0.056234
40          0.056234
41          0.056234
42          0.056234
43          0.056234
44          0.056234
45          0.056234
46          0.056234
47          0.056234
48          0.056234
49          0.056234
50          0.056234
51          0.056234
52          0.056234
53          0.056234
54          0.056234
55          0.056234
#Macrocell     #Rates [Hz]
1          5708.000000
2          5708.000000
3          3286.000000
4          26346.000000
5          5908.000000
6          12268.000000
7          2928.000000
8          19158.000000
9          3949.000000
10          41296.000000
11          6815.000000
12          4026.000000
13          6216.000000
14          7346.000000
15          18491.000000
16          4291.000000
17          3961.000000
18          14030.000000
19          7017.000000
20          41794.000000
21          14062.000000
22          2810.000000
23          3065.000000
24          28134.000000
25          8014.000000
26          15464.000000
27          19952.000000
28          0.000000
29          16080.000000
30          11569.000000
31          4891.000000
32          33052.000000
33          14426.000000
34          21193.000000
35          7181.000000
36          16206.000000
37          30165.000000
38          5089.000000
39          13940.000000
40          1056.000000
41          31222.000000
42          3463.000000
43          12150.000000
44          12719.000000
45          7193.000000
46          996.000000
47          6311.000000
48          11462.000000
49          5493.000000
50          21787.000000
51          8974.000000
52          4028.000000
53          2999.000000
54          5434.000000
55          1823.000000
%56          0.000000
#Macrocell     #Threshold [V]
1          0.066834
2          0.066834
3          0.066834
4          0.066834
5          0.066834
6          0.066834
7          0.066834
8          0.066834
9          0.066834
10          0.066834
11          0.066834
12          0.066834
13          0.066834
14          0.066834
15          0.066834
16          0.066834
17          0.066834
18          0.066834
19          0.066834
20          0.066834
21          0.066834
22          0.066834
23          0.066834
24          0.066834
25          0.066834
26          0.066834
27          0.066834
28          0.066834
29          0.066834
30          0.066834
31          0.066834
32          0.066834
33          0.066834
34          0.066834
35          0.066834
36          0.066834
37          0.066834
38          0.066834
39          0.066834
40          0.066834
41          0.066834
42          0.066834
43          0.066834
44          0.066834
45          0.066834
46          0.066834
47          0.066834
48          0.066834
49          0.066834
50          0.066834
51          0.066834
52          0.066834
53          0.066834
54          0.066834
55          0.066834
#Macrocell     #Rates [Hz]
1          2549.000000
2          2549.000000
3          839.000000
4          10811.000000
5          2646.000000
6          5402.000000
7          1363.000000
8          8075.000000
9          1205.000000
10          15002.000000
11          2607.000000
12          1392.000000
13          1791.000000
14          2201.000000
15          6943.000000
16          1078.000000
17          1386.000000
18          4706.000000
19          2509.000000
20          14622.000000
21          4229.000000
22          502.000000
23          746.000000
24          10610.000000
25          2194.000000
26          4789.000000
27          7900.000000
28          7175.000000
29          4244.000000
30          3698.000000
31          927.000000
32          10667.000000
33          5786.000000
34          6800.000000
35          1047.000000
36          4838.000000
37          11655.000000
38          1591.000000
39          5569.000000
40          173.000000
41          11321.000000
42          837.000000
43          4575.000000
44          3909.000000
45          2588.000000
46          136.000000
47          2375.000000
48          3837.000000
49          1430.000000
50          8057.000000
51          3645.000000
52          1045.000000
53          1098.000000
54          2027.000000
55          301.000000
%56          0.000000
#Macrocell     #Threshold [V]
1          0.079433
2          0.079433
3          0.079433
4          0.079433
5          0.079433
6          0.079433
7          0.079433
8          0.079433
9          0.079433
10          0.079433
11          0.079433
12          0.079433
13          0.079433
14          0.079433
15          0.079433
16          0.079433
17          0.079433
18          0.079433
19          0.079433
20          0.079433
21          0.079433
22          0.079433
23          0.079433
24          0.079433
25          0.079433
26          0.079433
27          0.079433
28          0.079433
29          0.079433
30          0.079433
31          0.079433
32          0.079433
33          0.079433
34          0.079433
35          0.079433
36          0.079433
37          0.079433
38          0.079433
39          0.079433
40          0.079433
41          0.079433
42          0.079433
43          0.079433
44          0.079433
45          0.079433
46          0.079433
47          0.079433
48          0.079433
49          0.079433
50          0.079433
51          0.079433
52          0.079433
53          0.079433
54          0.079433
55          0.079433
#Macrocell     #Rates [Hz]
1          2678.000000
2          2678.000000
3          430.000000
4          10883.000000
5          3080.000000
6          5384.000000
7          1290.000000
8          7847.000000
9          535.000000
10          15843.000000
11          1929.000000
12          716.000000
13          1046.000000
14          1161.000000
15          6422.000000
16          361.000000
17          996.000000
18          3228.000000
19          2369.000000
20          14526.000000
21          4005.000000
22          117.000000
23          339.000000
24          9142.000000
25          1385.000000
26          3063.000000
27          7036.000000
28          5208.000000
29          3302.000000
30          3236.000000
31          281.000000
32          10211.000000
33          5334.000000
34          6863.000000
35          395.000000
36          4241.000000
37          10272.000000
38          1250.000000
39          4882.000000
40          53.000000
41          10366.000000
42          382.000000
43          4775.000000
44          2869.000000
45          2242.000000
46          34.000000
47          2349.000000
48          2446.000000
49          630.000000
50          7875.000000
51          4040.000000
52          499.000000
53          849.000000
54          1788.000000
55          56.000000
%56          0.000000
#Macrocell     #Rates [Hz]
1          3444.000000
2          3444.000000
3          536.000000
4          13663.000000
5          3922.000000
6          6724.000000
7          1656.000000
8          9930.000000
9          688.000000
10          19889.000000
11          2494.000000
12          882.000000
13          1366.000000
14          1552.000000
15          8215.000000
16          471.000000
17          1264.000000
18          4153.000000
19          3013.000000
20          18174.000000
21          5174.000000
22          138.000000
23          404.000000
24          11560.000000
25          1864.000000
26          3809.000000
27          8756.000000
28          6515.000000
29          3972.000000
30          4082.000000
31          318.000000
32          12692.000000
33          6816.000000
34          8521.000000
35          463.000000
36          5349.000000
37          13023.000000
38          1500.000000
39          6153.000000
40          49.000000
41          13059.000000
42          420.000000
43          6084.000000
44          3630.000000
45          2778.000000
46          37.000000
47          2969.000000
48          3146.000000
49          810.000000
50          9800.000000
51          5198.000000
52          624.000000
53          1150.000000
54          2276.000000
55          68.000000
%56          0.000000
#Macrocell     #Threshold [V]
1          0.094406
2          0.094406
3          0.094406
4          0.094406
5          0.094406
6          0.094406
7          0.094406
8          0.094406
9          0.094406
10          0.094406
11          0.094406
12          0.094406
13          0.094406
14          0.094406
15          0.094406
16          0.094406
17          0.094406
18          0.094406
19          0.094406
20          0.094406
21          0.094406
22          0.094406
23          0.094406
24          0.094406
25          0.094406
26          0.094406
27          0.094406
28          0.094406
29          0.094406
30          0.094406
31          0.094406
32          0.094406
33          0.094406
34          0.094406
35          0.094406
36          0.094406
37          0.094406
38          0.094406
39          0.094406
40          0.094406
41          0.094406
42          0.094406
43          0.094406
44          0.094406
45          0.094406
46          0.094406
47          0.094406
48          0.094406
49          0.094406
50          0.094406
51          0.094406
52          0.094406
53          0.094406
54          0.094406
55          0.094406
#Macrocell     #Rates [Hz]
1          1567.000000
2          1567.000000
3          80.000000
4          7316.000000
5          2582.000000
6          3372.000000
7          449.000000
8          4791.000000
9          53.000000
10          10201.000000
11          666.000000
12          58.000000
13          252.000000
14          194.000000
15          3825.000000
16          42.000000
17          366.000000
18          1261.000000
19          1462.000000
20          9875.000000
21          2510.000000
22          7.000000
23          67.000000
24          3865.000000
25          429.000000
26          1081.000000
27          2939.000000
28          2530.000000
29          1383.000000
30          2327.000000
31          22.000000
32          4667.000000
33          2458.000000
34          4564.000000
35          53.000000
36          2075.000000
37          5518.000000
38          537.000000
39          2361.000000
40          1.000000
41          6136.000000
42          59.000000
43          3016.000000
44          1090.000000
45          1027.000000
46          2.000000
47          1653.000000
48          655.000000
49          73.000000
50          5164.000000
51          3370.000000
52          72.000000
53          495.000000
54          1199.000000
55          1.000000
%56          0.000000
#Macrocell     #Threshold [V]
1          0.112202
2          0.112202
3          0.112202
4          0.112202
5          0.112202
6          0.112202
7          0.112202
8          0.112202
9          0.112202
10          0.112202
11          0.112202
12          0.112202
13          0.112202
14          0.112202
15          0.112202
16          0.112202
17          0.112202
18          0.112202
19          0.112202
20          0.112202
21          0.112202
22          0.112202
23          0.112202
24          0.112202
25          0.112202
26          0.112202
27          0.112202
28          0.112202
29          0.112202
30          0.112202
31          0.112202
32          0.112202
33          0.112202
34          0.112202
35          0.112202
36          0.112202
37          0.112202
38          0.112202
39          0.112202
40          0.112202
41          0.112202
42          0.112202
43          0.112202
44          0.112202
45          0.112202
46          0.112202
47          0.112202
48          0.112202
49          0.112202
50          0.112202
51          0.112202
52          0.112202
53          0.112202
54          0.112202
55          0.112202
#Macrocell     #Rates [Hz]
1          704.000000
2          704.000000
3          4.000000
4          5542.000000
5          2142.000000
6          2242.000000
7          48.000000
8          3436.000000
9          1.000000
10          7690.000000
11          201.000000
12          6.000000
13          25.000000
14          6.000000
15          3210.000000
16          5.000000
17          136.000000
18          482.000000
19          777.000000
20          9383.000000
21          1384.000000
22          1.000000
23          18.000000
24          1663.000000
25          168.000000
26          351.000000
27          1013.000000
28          1624.000000
29          553.000000
30          2117.000000
31          2.000000
32          1412.000000
33          1318.000000
34          2839.000000
35          7.000000
36          824.000000
37          4596.000000
38          144.000000
39          918.000000
40          1.000000
41          5426.000000
42          9.000000
43          1796.000000
44          417.000000
45          392.000000
46          0.000000
47          1467.000000
48          92.000000
49          5.000000
50          4033.000000
51          3421.000000
52          2.000000
53          294.000000
54          771.000000
55          0.000000
%56          0.000000
#Macrocell     #Threshold [V]
1          0.133352
2          0.133352
3          0.133352
4          0.133352
5          0.133352
6          0.133352
7          0.133352
8          0.133352
9          0.133352
10          0.133352
11          0.133352
12          0.133352
13          0.133352
14          0.133352
15          0.133352
16          0.133352
17          0.133352
18          0.133352
19          0.133352
20          0.133352
21          0.133352
22          0.133352
23          0.133352
24          0.133352
25          0.133352
26          0.133352
27          0.133352
28          0.133352
29          0.133352
30          0.133352
31          0.133352
32          0.133352
33          0.133352
34          0.133352
35          0.133352
36          0.133352
37          0.133352
38          0.133352
39          0.133352
40          0.133352
41          0.133352
42          0.133352
43          0.133352
44          0.133352
45          0.133352
46          0.133352
47          0.133352
48          0.133352
49          0.133352
50          0.133352
51          0.133352
52          0.133352
53          0.133352
54          0.133352
55          0.133352
#Macrocell     #Rates [Hz]
1          74.000000
2          74.000000
3          0.000000
4          1672.000000
5          304.000000
6          275.000000
7          0.000000
8          652.000000
9          1.000000
10          1875.000000
11          8.000000
12          1.000000
13          1.000000
14          2.000000
15          1067.000000
16          1.000000
17          5.000000
18          33.000000
19          38.000000
20          3188.000000
21          110.000000
22          0.000000
23          0.000000
24          142.000000
25          7.000000
26          13.000000
27          40.000000
28          253.000000
29          45.000000
30          732.000000
31          0.000000
32          48.000000
33          189.000000
34          226.000000
35          0.000000
36          45.000000
37          1146.000000
38          5.000000
39          37.000000
40          0.000000
41          2137.000000
42          0.000000
43          137.000000
44          33.000000
45          10.000000
46          2.000000
47          327.000000
48          0.000000
49          0.000000
50          917.000000
51          1057.000000
52          0.000000
53          43.000000
54          54.000000
55          0.000000
%56          0.000000
#Macrocell     #Threshold [V]
1          0.158489
2          0.158489
3          0.158489
4          0.158489
5          0.158489
6          0.158489
7          0.158489
8          0.158489
9          0.158489
10          0.158489
11          0.158489
12          0.158489
13          0.158489
14          0.158489
15          0.158489
16          0.158489
17          0.158489
18          0.158489
19          0.158489
20          0.158489
21          0.158489
22          0.158489
23          0.158489
24          0.158489
25          0.158489
26          0.158489
27          0.158489
28          0.158489
29          0.158489
30          0.158489
31          0.158489
32          0.158489
33          0.158489
34          0.158489
35          0.158489
36          0.158489
37          0.158489
38          0.158489
39          0.158489
40          0.158489
41          0.158489
42          0.158489
43          0.158489
44          0.158489
45          0.158489
46          0.158489
47          0.158489
48          0.158489
49          0.158489
50          0.158489
51          0.158489
52          0.158489
53          0.158489
54          0.158489
55          0.158489
#Macrocell     #Rates [Hz]
1          2.000000
2          2.000000
3          0.000000
4          1924.000000
5          15.000000
6          37.000000
7          0.000000
8          196.000000
9          0.000000
10          1843.000000
11          1.000000
12          1.000000
13          0.000000
14          0.000000
15          1120.000000
16          2.000000
17          0.000000
18          2.000000
19          3.000000
20          3404.000000
21          7.000000
22          0.000000
23          1.000000
24          12.000000
25          0.000000
26          1.000000
27          0.000000
28          42.000000
29          4.000000
30          537.000000
31          0.000000
32          0.000000
33          49.000000
34          13.000000
35          0.000000
36          2.000000
37          325.000000
38          0.000000
39          1.000000
40          0.000000
41          3038.000000
42          0.000000
43          6.000000
44          2.000000
45          0.000000
46          1.000000
47          29.000000
48          1.000000
49          0.000000
50          364.000000
51          729.000000
52          0.000000
53          0.000000
54          1.000000
55          1.000000
%56          0.000000
#Macrocell     #Rates [Hz]
1          5.000000
2          5.000000
3          0.000000
4          1728.000000
5          15.000000
6          37.000000
7          0.000000
8          166.000000
9          0.000000
10          1596.000000
11          1.000000
12          0.000000
13          0.000000
14          0.000000
15          985.000000
16          0.000000
17          0.000000
18          2.000000
19          1.000000
20          2992.000000
21          7.000000
22          0.000000
23          0.000000
24          6.000000
25          0.000000
26          0.000000
27          3.000000
28          32.000000
29          2.000000
30          472.000000
31          0.000000
32          0.000000
33          53.000000
34          15.000000
35          1.000000
36          6.000000
37          302.000000
38          0.000000
39          1.000000
40          0.000000
41          2767.000000
42          0.000000
43          5.000000
44          0.000000
45          0.000000
46          1.000000
47          43.000000
48          0.000000
49          0.000000
50          339.000000
51          688.000000
52          0.000000
53          0.000000
54          1.000000
55          1.000000
%56          0.000000
#Macrocell     #Threshold [V]
1          0.188365
2          0.188365
3          0.188365
4          0.188365
5          0.188365
6          0.188365
7          0.188365
8          0.188365
9          0.188365
10          0.188365
11          0.188365
12          0.188365
13          0.188365
14          0.188365
15          0.188365
16          0.188365
17          0.188365
18          0.188365
19          0.188365
20          0.188365
21          0.188365
22          0.188365
23          0.188365
24          0.188365
25          0.188365
26          0.188365
27          0.188365
28          0.188365
29          0.188365
30          0.188365
31          0.188365
32          0.188365
33          0.188365
34          0.188365
35          0.188365
36          0.188365
37          0.188365
38          0.188365
39          0.188365
40          0.188365
41          0.188365
42          0.188365
43          0.188365
44          0.188365
45          0.188365
46          0.188365
47          0.188365
48          0.188365
49          0.188365
50          0.188365
51          0.188365
52          0.188365
53          0.188365
54          0.188365
55          0.188365
#Macrocell     #Rates [Hz]
1          0.000000
2          0.000000
3          0.000000
4          612.000000
5          0.000000
6          1.000000
7          1.000000
8          3.000000
9          0.000000
10          720.000000
11          1.000000
12          1.000000
13          0.000000
14          0.000000
15          235.000000
16          0.000000
17          0.000000
18          0.000000
19          0.000000
20          2279.000000
21          1.000000
22          0.000000
23          0.000000
24          0.000000
25          1.000000
26          0.000000
27          0.000000
28          0.000000
29          0.000000
30          23.000000
31          0.000000
32          1.000000
33          0.000000
34          0.000000
35          0.000000
36          0.000000
37          6.000000
38          0.000000
39          0.000000
40          0.000000
41          2024.000000
42          0.000000
43          0.000000
44          0.000000
45          0.000000
46          0.000000
47          0.000000
48          0.000000
49          1.000000
50          12.000000
51          61.000000
52          0.000000
53          0.000000
54          0.000000
55          0.000000
%56          0.000000
#Macrocell     #Threshold [V]
1          0.223872
2          0.223872
3          0.223872
4          0.223872
5          0.223872
6          0.223872
7          0.223872
8          0.223872
9          0.223872
10          0.223872
11          0.223872
12          0.223872
13          0.223872
14          0.223872
15          0.223872
16          0.223872
17          0.223872
18          0.223872
19          0.223872
20          0.223872
21          0.223872
22          0.223872
23          0.223872
24          0.223872
25          0.223872
26          0.223872
27          0.223872
28          0.223872
29          0.223872
30          0.223872
31          0.223872
32          0.223872
33          0.223872
34          0.223872
35          0.223872
36          0.223872
37          0.223872
38          0.223872
39          0.223872
40          0.223872
41          0.223872
42          0.223872
43          0.223872
44          0.223872
45          0.223872
46          0.223872
47          0.223872
48          0.223872
49          0.223872
50          0.223872
51          0.223872
52          0.223872
53          0.223872
54          0.223872
55          0.223872
#Macrocell     #Rates [Hz]
1          0.000000
2          0.000000
3          0.000000
4          4.000000
5          0.000000
6          0.000000
7          0.000000
8          0.000000
9          0.000000
10          23.000000
11          0.000000
12          1.000000
13          0.000000
14          0.000000
15          0.000000
16          2.000000
17          1.000000
18          0.000000
19          0.000000
20          513.000000
21          0.000000
22          0.000000
23          0.000000
24          0.000000
25          0.000000
26          0.000000
27          0.000000
28          0.000000
29          0.000000
30          0.000000
31          0.000000
32          0.000000
33          0.000000
34          1.000000
35          0.000000
36          0.000000
37          0.000000
38          0.000000
39          0.000000
40          0.000000
41          217.000000
42          0.000000
43          0.000000
44          0.000000
45          0.000000
46          0.000000
47          0.000000
48          0.000000
49          0.000000
50          0.000000
51          0.000000
52          0.000000
53          0.000000
54          0.000000
55          0.000000
%56          0.000000
#Macrocell     #Threshold [V]
1          0.266072
2          0.266072
3          0.266072
4          0.266072
5          0.266072
6          0.266072
7          0.266072
8          0.266072
9          0.266072
10          0.266072
11          0.266072
12          0.266072
13          0.266072
14          0.266072
15          0.266072
16          0.266072
17          0.266072
18          0.266072
19          0.266072
20          0.266072
21          0.266072
22          0.266072
23          0.266072
24          0.266072
25          0.266072
26          0.266072
27          0.266072
28          0.266072
29          0.266072
30          0.266072
31          0.266072
32          0.266072
33          0.266072
34          0.266072
35          0.266072
36          0.266072
37          0.266072
38          0.266072
39          0.266072
40          0.266072
41          0.266072
42          0.266072
43          0.266072
44          0.266072
45          0.266072
46          0.266072
47          0.266072
48          0.266072
49          0.266072
50          0.266072
51          0.266072
52          0.266072
53          0.266072
54          0.266072
55          0.266072
#Macrocell     #Rates [Hz]
1          0.000000
2          0.000000
3          0.000000
4          0.000000
5          0.000000
6          0.000000
7          0.000000
8          0.000000
9          0.000000
10          0.000000
11          0.000000
12          0.000000
13          0.000000
14          0.000000
15          0.000000
16          0.000000
17          0.000000
18          0.000000
19          0.000000
20          13.000000
21          0.000000
22          0.000000
23          0.000000
24          0.000000
25          0.000000
26          0.000000
27          0.000000
28          0.000000
29          0.000000
30          0.000000
31          0.000000
32          0.000000
33          0.000000
34          0.000000
35          0.000000
36          0.000000
37          0.000000
38          0.000000
39          0.000000
40          0.000000
41          0.000000
42          0.000000
43          0.000000
44          0.000000
45          0.000000
46          0.000000
47          0.000000
48          0.000000
49          0.000000
50          0.000000
51          0.000000
52          0.000000
53          0.000000
54          0.000000
55          0.000000
%56          0.000000
#Macrocell     #Threshold [V]
1          0.316228
2          0.316228
3          0.316228
4          0.316228
5          0.316228
6          0.316228
7          0.316228
8          0.316228
9          0.316228
10          0.316228
11          0.316228
12          0.316228
13          0.316228
14          0.316228
15          0.316228
16          0.316228
17          0.316228
18          0.316228
19          0.316228
20          0.316228
21          0.316228
22          0.316228
23          0.316228
24          0.316228
25          0.316228
26          0.316228
27          0.316228
28          0.316228
29          0.316228
30          0.316228
31          0.316228
32          0.316228
33          0.316228
34          0.316228
35          0.316228
36          0.316228
37          0.316228
38          0.316228
39          0.316228
40          0.316228
41          0.316228
42          0.316228
43          0.316228
44          0.316228
45          0.316228
46          0.316228
47          0.316228
48          0.316228
49          0.316228
50          0.316228
51          0.316228
52          0.316228
53          0.316228
54          0.316228
55          0.316228
#Macrocell     #Rates [Hz]
1          0.000000
2          0.000000
3          0.000000
4          0.000000
5          0.000000
6          0.000000
7          0.000000
8          0.000000
9          0.000000
10          0.000000
11          0.000000
12          0.000000
13          0.000000
14          0.000000
15          0.000000
16          0.000000
17          0.000000
18          0.000000
19          0.000000
20          0.000000
21          0.000000
22          0.000000
23          0.000000
24          0.000000
25          0.000000
26          0.000000
27          0.000000
28          0.000000
29          0.000000
30          0.000000
31          0.000000
32          0.000000
33          0.000000
34          0.000000
35          0.000000
36          0.000000
37          0.000000
38          0.000000
39          0.000000
40          0.000000
41          0.000000
42          0.000000
43          0.000000
44          0.000000
45          0.000000
46          0.000000
47          0.000000
48          0.000000
49          0.000000
50          0.000000
51          0.000000
52          0.000000
53          0.000000
54          0.000000
55          0.000000
%56          0.000000
#Macrocell     #Rates [Hz]
1          0.000000
2          0.000000
3          0.000000
4          0.000000
5          0.000000
6          0.000000
7          0.000000
8          0.000000
9          0.000000
10          0.000000
11          0.000000
12          0.000000
13          0.000000
14          0.000000
15          0.000000
16          0.000000
17          0.000000
18          0.000000
19          0.000000
20          0.000000
21          0.000000
22          0.000000
23          0.000000
24          0.000000
25          0.000000
26          0.000000
27          0.000000
28          0.000000
29          0.000000
30          0.000000
31          0.000000
32          0.000000
33          0.000000
34          0.000000
35          0.000000
36          0.000000
37          0.000000
38          0.000000
39          0.000000
40          0.000000
41          0.000000
42          0.000000
43          0.000000
44          1.000000
45          0.000000
46          0.000000
47          0.000000
48          0.000000
49          0.000000
50          0.000000
51          0.000000
52          0.000000
53          0.000000
54          0.000000
55          0.000000
%56          0.000000
#Macrocell     #Threshold [V]
1          0.375837
2          0.375837
3          0.375837
4          0.375837
5          0.375837
6          0.375837
7          0.375837
8          0.375837
9          0.375837
10          0.375837
11          0.375837
12          0.375837
13          0.375837
14          0.375837
15          0.375837
16          0.375837
17          0.375837
18          0.375837
19          0.375837
20          0.375837
21          0.375837
22          0.375837
23          0.375837
24          0.375837
25          0.375837
26          0.375837
27          0.375837
28          0.375837
29          0.375837
30          0.375837
31          0.375837
32          0.375837
33          0.375837
34          0.375837
35          0.375837
36          0.375837
37          0.375837
38          0.375837
39          0.375837
40          0.375837
41          0.375837
42          0.375837
43          0.375837
44          0.375837
45          0.375837
46          0.375837
47          0.375837
48          0.375837
49          0.375837
50          0.375837
51          0.375837
52          0.375837
53          0.375837
54          0.375837
55          0.375837
#Macrocell     #Rates [Hz]
1          0.000000
2          0.000000
3          0.000000
4          0.000000
5          0.000000
6          0.000000
7          0.000000
8          0.000000
9          0.000000
10          0.000000
11          0.000000
12          0.000000
13          0.000000
14          0.000000
15          0.000000
16          0.000000
17          0.000000
18          0.000000
19          0.000000
20          0.000000
21          0.000000
22          0.000000
23          0.000000
24          0.000000
25          0.000000
26          0.000000
27          0.000000
28          0.000000
29          0.000000
30          0.000000
31          0.000000
32          0.000000
33          0.000000
34          0.000000
35          0.000000
36          0.000000
37          0.000000
38          0.000000
39          0.000000
40          0.000000
41          0.000000
42          0.000000
43          0.000000
44          0.000000
45          0.000000
46          0.000000
47          0.000000
48          0.000000
49          0.000000
50          0.000000
51          0.000000
52          1.000000
53          0.000000
54          0.000000
55          0.000000
%56          0.000000
#Macrocell     #Threshold [V]
1          0.446684
2          0.446684
3          0.446684
4          0.446684
5          0.446684
6          0.446684
7          0.446684
8          0.446684
9          0.446684
10          0.446684
11          0.446684
12          0.446684
13          0.446684
14          0.446684
15          0.446684
16          0.446684
17          0.446684
18          0.446684
19          0.446684
20          0.446684
21          0.446684
22          0.446684
23          0.446684
24          0.446684
25          0.446684
26          0.446684
27          0.446684
28          0.446684
29          0.446684
30          0.446684
31          0.446684
32          0.446684
33          0.446684
34          0.446684
35          0.446684
36          0.446684
37          0.446684
38          0.446684
39          0.446684
40          0.446684
41          0.446684
42          0.446684
43          0.446684
44          0.446684
45          0.446684
46          0.446684
47          0.446684
48          0.446684
49          0.446684
50          0.446684
51          0.446684
52          0.446684
53          0.446684
54          0.446684
55          0.446684
#Macrocell     #Rates [Hz]
1          0.000000
2          0.000000
3          0.000000
4          0.000000
5          0.000000
6          0.000000
7          0.000000
8          0.000000
9          0.000000
10          0.000000
11          0.000000
12          0.000000
13          0.000000
14          0.000000
15          0.000000
16          0.000000
17          0.000000
18          0.000000
19          0.000000
20          0.000000
21          0.000000
22          0.000000
23          0.000000
24          0.000000
25          0.000000
26          0.000000
27          0.000000
28          0.000000
29          0.000000
30          0.000000
31          0.000000
32          0.000000
33          0.000000
34          0.000000
35          0.000000
36          0.000000
37          0.000000
38          0.000000
39          0.000000
40          0.000000
41          0.000000
42          0.000000
43          0.000000
44          0.000000
45          0.000000
46          0.000000
47          0.000000
48          0.000000
49          0.000000
50          0.000000
51          0.000000
52          0.000000
53          0.000000
54          0.000000
55          0.000000
%56          0.000000
#Macrocell     #Threshold [V]
1          0.530884
2          0.530884
3          0.530884
4          0.530884
5          0.530884
6          0.530884
7          0.530884
8          0.530884
9          0.530884
10          0.530884
11          0.530884
12          0.530884
13          0.530884
14          0.530884
15          0.530884
16          0.530884
17          0.530884
18          0.530884
19          0.530884
20          0.530884
21          0.530884
22          0.530884
23          0.530884
24          0.530884
25          0.530884
26          0.530884
27          0.530884
28          0.530884
29          0.530884
30          0.530884
31          0.530884
32          0.530884
33          0.530884
34          0.530884
35          0.530884
36          0.530884
37          0.530884
38          0.530884
39          0.530884
40          0.530884
41          0.530884
42          0.530884
43          0.530884
44          0.530884
45          0.530884
46          0.530884
47          0.530884
48          0.530884
49          0.530884
50          0.530884
51          0.530884
52          0.530884
53          0.530884
54          0.530884
55          0.530884
#Macrocell     #Rates [Hz]
1          0.000000
2          0.000000
3          0.000000
4          0.000000
5          0.000000
6          0.000000
7          0.000000
8          0.000000
9          0.000000
10          0.000000
11          0.000000
12          0.000000
13          0.000000
14          0.000000
15          0.000000
16          0.000000
17          0.000000
18          0.000000
19          0.000000
20          0.000000
21          0.000000
22          0.000000
23          0.000000
24          0.000000
25          0.000000
26          0.000000
27          0.000000
28          0.000000
29          0.000000
30          0.000000
31          0.000000
32          0.000000
33          0.000000
34          0.000000
35          0.000000
36          0.000000
37          0.000000
38          0.000000
39          0.000000
40          0.000000
41          0.000000
42          0.000000
43          0.000000
44          0.000000
45          0.000000
46          0.000000
47          0.000000
48          0.000000
49          0.000000
50          0.000000
51          0.000000
52          0.000000
53          0.000000
54          0.000000
55          0.000000
%56          0.000000
#Macrocell     #Threshold [V]
1          0.630957
2          0.630957
3          0.630957
4          0.630957
5          0.630957
6          0.630957
7          0.630957
8          0.630957
9          0.630957
10          0.630957
11          0.630957
12          0.630957
13          0.630957
14          0.630957
15          0.630957
16          0.630957
17          0.630957
18          0.630957
19          0.630957
20          0.630957
21          0.630957
22          0.630957
23          0.630957
24          0.630957
25          0.630957
26          0.630957
27          0.630957
28          0.630957
29          0.630957
30          0.630957
31          0.630957
32          0.630957
33          0.630957
34          0.630957
35          0.630957
36          0.630957
37          0.630957
38          0.630957
39          0.630957
40          0.630957
41          0.630957
42          0.630957
43          0.630957
44          0.630957
45          0.630957
46          0.630957
47          0.630957
48          0.630957
49          0.630957
50          0.630957
51          0.630957
52          0.630957
53          0.630957
54          0.630957
55          0.630957
#Macrocell     #Rates [Hz]
1          0.000000
2          0.000000
3          0.000000
4          0.000000
5          0.000000
6          0.000000
7          0.000000
8          0.000000
9          0.000000
10          0.000000
11          0.000000
12          0.000000
13          0.000000
14          0.000000
15          0.000000
16          0.000000
17          0.000000
18          0.000000
19          0.000000
20          0.000000
21          0.000000
22          0.000000
23          0.000000
24          0.000000
25          0.000000
26          0.000000
27          0.000000
28          0.000000
29          0.000000
30          0.000000
31          0.000000
32          0.000000
33          0.000000
34          0.000000
35          0.000000
36          0.000000
37          0.000000
38          0.000000
39          0.000000
40          0.000000
41          0.000000
42          0.000000
43          0.000000
44          0.000000
45          0.000000
46          0.000000
47          0.000000
48          0.000000
49          0.000000
50          0.000000
51          0.000000
52          0.000000
53          0.000000
54          0.000000
55          0.000000
%56          0.000000
#Macrocell     #Rates [Hz]
1          0.000000
2          0.000000
3          0.000000
4          0.000000
5          0.000000
6          0.000000
7          0.000000
8          0.000000
9          0.000000
10          0.000000
11          0.000000
12          0.000000
13          0.000000
14          0.000000
15          0.000000
16          0.000000
17          0.000000
18          0.000000
19          0.000000
20          0.000000
21          0.000000
22          0.000000
23          0.000000
24          0.000000
25          0.000000
26          0.000000
27          0.000000
28          0.000000
29          0.000000
30          0.000000
31          0.000000
32          0.000000
33          0.000000
34          0.000000
35          0.000000
36          0.000000
37          0.000000
38          0.000000
39          0.000000
40          0.000000
41          0.000000
42          0.000000
43          0.000000
44          0.000000
45          0.000000
46          0.000000
47          0.000000
48          0.000000
49          0.000000
50          0.000000
51          0.000000
52          0.000000
53          0.000000
54          0.000000
55          0.000000
%56          0.000000
#Macrocell     #Threshold [V]
1          0.749894
2          0.749894
3          0.749894
4          0.749894
5          0.749894
6          0.749894
7          0.749894
8          0.749894
9          0.749894
10          0.749894
11          0.749894
12          0.749894
13          0.749894
14          0.749894
15          0.749894
16          0.749894
17          0.749894
18          0.749894
19          0.749894
20          0.749894
21          0.749894
22          0.749894
23          0.749894
24          0.749894
25          0.749894
26          0.749894
27          0.749894
28          0.749894
29          0.749894
30          0.749894
31          0.749894
32          0.749894
33          0.749894
34          0.749894
35          0.749894
36          0.749894
37          0.749894
38          0.749894
39          0.749894
40          0.749894
41          0.749894
42          0.749894
43          0.749894
44          0.749894
45          0.749894
46          0.749894
47          0.749894
48          0.749894
49          0.749894
50          0.749894
51          0.749894
52          0.749894
53          0.749894
54          0.749894
55          0.749894
#Macrocell     #Rates [Hz]
1          0.000000
2          0.000000
3          0.000000
4          0.000000
5          0.000000
6          0.000000
7          0.000000
8          0.000000
9          0.000000
10          0.000000
11          0.000000
12          0.000000
13          0.000000
14          0.000000
15          0.000000
16          0.000000
17          0.000000
18          0.000000
19          0.000000
20          0.000000
21          0.000000
22          0.000000
23          0.000000
24          0.000000
25          0.000000
26          0.000000
27          0.000000
28          0.000000
29          0.000000
30          0.000000
31          0.000000
32          0.000000
33          0.000000
34          0.000000
35          0.000000
36          0.000000
37          0.000000
38          0.000000
39          0.000000
40          0.000000
41          0.000000
42          0.000000
43          0.000000
44          0.000000
45          0.000000
46          0.000000
47          0.000000
48          0.000000
49          0.000000
50          0.000000
51          0.000000
52          0.000000
53          0.000000
54          0.000000
55          0.000000
%56          0.000000
#Macrocell     #Threshold [V]
1          0.891251
2          0.891251
3          0.891251
4          0.891251
5          0.891251
6          0.891251
7          0.891251
8          0.891251
9          0.891251
10          0.891251
11          0.891251
12          0.891251
13          0.891251
14          0.891251
15          0.891251
16          0.891251
17          0.891251
18          0.891251
19          0.891251
20          0.891251
21          0.891251
22          0.891251
23          0.891251
24          0.891251
25          0.891251
26          0.891251
27          0.891251
28          0.891251
29          0.891251
30          0.891251
31          0.891251
32          0.891251
33          0.891251
34          0.891251
35          0.891251
36          0.891251
37          0.891251
38          0.891251
39          0.891251
40          0.891251
41          0.891251
42          0.891251
43          0.891251
44          0.891251
45          0.891251
46          0.891251
47          0.891251
48          0.891251
49          0.891251
50          0.891251
51          0.891251
52          0.891251
53          0.891251
54          0.891251
55          0.891251
#Macrocell     #Rates [Hz]
1          0.000000
2          0.000000
3          0.000000
4          0.000000
5          0.000000
6          0.000000
7          0.000000
8          0.000000
9          0.000000
10          0.000000
11          0.000000
12          0.000000
13          0.000000
14          0.000000
15          0.000000
16          0.000000
17          0.000000
18          0.000000
19          0.000000
20          0.000000
21          0.000000
22          0.000000
23          0.000000
24          0.000000
25          0.000000
26          0.000000
27          0.000000
28          0.000000
29          0.000000
30          0.000000
31          0.000000
32          0.000000
33          0.000000
34          0.000000
35          0.000000
36          0.000000
37          0.000000
38          0.000000
39          0.000000
40          0.000000
41          0.000000
42          0.000000
43          0.000000
44          0.000000
45          0.000000
46          0.000000
47          0.000000
48          0.000000
49          0.000000
50          0.000000
51          0.000000
52          0.000000
53          0.000000
54          0.000000
55          0.000000
%56          0.000000
#Macrocell     #Threshold [V]
1          1.059254
2          1.059254
3          1.059254
4          1.059254
5          1.059254
6          1.059254
7          1.059254
8          1.059254
9          1.059254
10          1.059254
11          1.059254
12          1.059254
13          1.059254
14          1.059254
15          1.059254
16          1.059254
17          1.059254
18          1.059254
19          1.059254
20          1.059254
21          1.059254
22          1.059254
23          1.059254
24          1.059254
25          1.059254
26          1.059254
27          1.059254
28          1.059254
29          1.059254
30          1.059254
31          1.059254
32          1.059254
33          1.059254
34          1.059254
35          1.059254
36          1.059254
37          1.059254
38          1.059254
39          1.059254
40          1.059254
41          1.059254
42          1.059254
43          1.059254
44          1.059254
45          1.059254
46          1.059254
47          1.059254
48          1.059254
49          1.059254
50          1.059254
51          1.059254
52          1.059254
53          1.059254
54          1.059254
55          1.059254
#Macrocell     #Rates [Hz]
1          0.000000
2          0.000000
3          0.000000
4          0.000000
5          0.000000
6          0.000000
7          0.000000
8          0.000000
9          0.000000
10          0.000000
11          0.000000
12          0.000000
13          0.000000
14          0.000000
15          0.000000
16          0.000000
17          0.000000
18          0.000000
19          0.000000
20          0.000000
21          0.000000
22          0.000000
23          0.000000
24          0.000000
25          0.000000
26          0.000000
27          0.000000
28          0.000000
29          0.000000
30          0.000000
31          0.000000
32          0.000000
33          0.000000
34          0.000000
35          0.000000
36          0.000000
37          0.000000
38          0.000000
39          0.000000
40          0.000000
41          0.000000
42          0.000000
43          0.000000
44          0.000000
45          0.000000
46          0.000000
47          0.000000
48          0.000000
49          0.000000
50          0.000000
51          0.000000
52          0.000000
53          0.000000
54          0.000000
55          0.000000
%56          0.000000
#Macrocell     #Threshold [V]
1          1.258925
2          1.258925
3          1.258925
4          1.258925
5          1.258925
6          1.258925
7          1.258925
8          1.258925
9          1.258925
10          1.258925
11          1.258925
12          1.258925
13          1.258925
14          1.258925
15          1.258925
16          1.258925
17          1.258925
18          1.258925
19          1.258925
20          1.258925
21          1.258925
22          1.258925
23          1.258925
24          1.258925
25          1.258925
26          1.258925
27          1.258925
28          1.258925
29          1.258925
30          1.258925
31          1.258925
32          1.258925
33          1.258925
34          1.258925
35          1.258925
36          1.258925
37          1.258925
38          1.258925
39          1.258925
40          1.258925
41          1.258925
42          1.258925
43          1.258925
44          1.258925
45          1.258925
46          1.258925
47          1.258925
48          1.258925
49          1.258925
50          1.258925
51          1.258925
52          1.258925
53          1.258925
54          1.258925
55          1.258925
#Macrocell     #Rates [Hz]
1          0.000000
2          0.000000
3          0.000000
4          0.000000
5          0.000000
6          0.000000
7          0.000000
8          0.000000
9          0.000000
10          0.000000
11          0.000000
12          0.000000
13          0.000000
14          0.000000
15          0.000000
16          0.000000
17          0.000000
18          0.000000
19          0.000000
20          0.000000
21          0.000000
22          0.000000
23          0.000000
24          0.000000
25          0.000000
26          0.000000
27          0.000000
28          0.000000
29          0.000000
30          0.000000
31          0.000000
32          0.000000
33          0.000000
34          0.000000
35          0.000000
36          0.000000
37          0.000000
38          0.000000
39          0.000000
40          0.000000
41          0.000000
42          0.000000
43          0.000000
44          0.000000
45          0.000000
46          0.000000
47          0.000000
48          0.000000
49          0.000000
50          0.000000
51          0.000000
52          0.000000
53          0.000000
54          0.000000
55          0.000000
%56          0.000000
