total 15M
-rwxrwxrwx 1 root     root   796 Jul 16  2015 initialvalues_Att_FF_PI.uic
-rwxrwxrwx 1 root     root   156 Jul 16  2015 cal_del_thomas.uic
-rwxrwxrwx 1 root     root   312 Jul 16  2015 CristalSpi_var.h
-rwxrwxrwx 1 root     root   18K Jul 16  2015 Amp_i1_M1_11022014_at8_out.uic
-rwxrwxrwx 1 root     root  1.2M Jul 16  2015 att_check_13112014_PI.out
-rwxrwxrwx 1 root     root   23K Jul 16  2015 M1_check_amp_25FEB.dat
-rwxrwxrwx 1 root     root    20 Jul 16  2015 out
-rwxrwxrwx 1 root     root  1.6K Jul 16  2015 intdefs.h
-rwxrwxrwx 1 root     root  1.6M Jul 16  2015 del_FF_13112014_i0_checkmacros.out
-rwxrwxrwx 1 root     root   197 Jul 16  2015 cal_amp_test.uic
-rwxrwxrwx 1 root     root   834 Jul 16  2015 initialvalues_Del_FF_PI.uic
-rwxrwxrwx 1 root     root   193 Jul 16  2015 cal_reference_test.uic
-rwxrwxrwx 1 root     root  1.1K Jul 16  2015 LUT.uic
-rwxrwxrwx 1 root     root  2.7K Jul 16  2015 sss
-rwxrwxrwx 1 root     root   537 Jul 16  2015 root@Pc22
-rwxrwxrwx 1 root     root     0 Jul 16  2015 myflocked.txt
-rwxrwxrwx 1 root     root   653 Jul 16  2015 initialvalues_test.uic
-rwxrwxrwx 1 root     root   90K Jul 16  2015 del_thomas.out
-rwxrwxrwx 1 root     root   741 Jul 16  2015 cristal_init.uic
-rwxrwxrwx 1 root     root  300K Jul 16  2015 Ref_del_scan_31Jan.dat
-rwxrwxrwx 1 root     root  1.5K Jul 16  2015 AstroLib.h
-rwxrwxrwx 1 root     root  4.1K Jul 16  2015 temp.txt
-rwxrwxrwx 1 root     root   794 Jul 16  2015 initialvalues_del_thomas_PI.uic
-rwxrwxrwx 1 root     root  2.7K Jul 16  2015 cal_reference.uic
-rwxrwxrwx 1 root     root  2.6K Jul 16  2015 cal_del.uic
-rwxrwxrwx 1 root     root   17K Jul 16  2015 DEFAULT
-rwxrwxrwx 1 root     root   980 Jul 16  2015 termcolor.h
-rwxrwxrwx 1 root     root     0 Jul 16  2015 powerlib.h
-rwxrwxrwx 1 root     root   732 Jul 16  2015 initialvalues_Del_FF.uic
-rwxrwxrwx 1 root     root  1.2M Jul 16  2015 cal_amp_M1_10112014.dat
-rwxrwxrwx 1 root     root   100 Jul 16  2015 SumLib.h
-rwxrwxrwx 1 root     root  7.2K Jul 16  2015 STControl.h
-rwxrwxrwx 1 root     root   861 Jul 16  2015 ClipLib.h
-rwxrwxrwx 1 root     root   117 Jul 16  2015 Boole.h
-rwxrwxrwx 1 root     root   25K Jul 16  2015 test_refdel_m1_30oc2014.out
-rwxrwxrwx 1 root     root   718 Jul 16  2015 initialvalues_del_thomas.uic
-rwxrwxrwx 1 root     root   123 Jul 16  2015 cal_del_test.uic
-rwxrwxrwx 1 root     root  6.9K Jul 16  2015 STControl_beforecopy.h
-rwxrwxrwx 1 root     root   12K Jul 16  2015 del_FF_13112014_i0_checkmacros_out.uic
-rwxrwxrwx 1 root     root  1.6M Jul 16  2015 del_FF_10112014_i0_crosscheckmacros.out
-rwxrwxrwx 1 root     root   18K Jul 16  2015 Amp_i1_M1_11022014_at10_out.uic
-rwxrwxrwx 1 root     root   537 Jul 16  2015 initialvalues_Att_FF_i0.uic
-rwxrwxrwx 1 root     root   662 Jul 16  2015 initial_values_testreference.uic
-rwxrwxrwx 1 root     root  4.8K Jul 16  2015 BBmenu.h
-rwxrwxrwx 1 root     root   12K Jul 16  2015 Del_i1_M1_11022014_out.uic
-rwxrwxrwx 1 root     root   24K Jul 16  2015 test_refdel2_m1_30oc2014.out
-rwxrwxrwx 1 root     root  2.0K Jul 16  2015 cal_amp.uic
-rwxrwxrwx 1 root     root  5.5K Jul 16  2015 \
-rwxrwxrwx 1 root     root   78K Jul 16  2015 test_refdel_m1_04Nov2014.out
-rwxrwxrwx 1 root     root   778 Jul 16  2015 socklib.h
-rwxrwxrwx 1 root     root    83 Jul 16  2015 logicals.h
-rwxrwxrwx 1 root     root  1.6K Jul 16  2015 BBmenu_private.h
-rwxrwxrwx 1 root     root   860 Jul 16  2015 makefile
-rwxrwxrwx 1 root     root   884 Jul 16  2015 initialvalues_Del_FF_PI_diegotest.uic
-rwxrwxrwx 1 root     root   18K Jul 16  2015 att_FF_10112014_i0_checkmacros_out.uic
-rwxrwxrwx 1 root     root  1.1M Jul 16  2015 att_FF_10112014_i0_checkmacros.out
-rwxrwxrwx 1 root     root   280 Jul 16  2015 CristalGpio.h
drwxrwxrwx 2 root     root  4.0K Jul 16  2015 data_uic_files
-rwxrwxrwx 1 root     root  1.1M Jul 16  2015 test_amp_m1_30oc2014.out
-rwxrwxrwx 1 root     root   12K Jul 16  2015 Del_i0_M1_11022014_out.uic
-rwxrwxrwx 1 root     root  1.6M Jul 16  2015 del_FF_10112014_i0_checkmacros.out
-rwxrwxrwx 1 root     root  2.7K Jul 16  2015 CristalSpiLib.h
-rwxrwxrwx 1 root     root  1.5M Jul 16  2015 test_del.out
-rwxrwxrwx 1 root     root   12K Jul 16  2015 del_FF_10112014_i0_checkmacros_out.uic
-rwxrwxrwx 1 root     root  1.3M Jul 16  2015 test2_refdel_m1_04Nov2014.out
-rwxrwxrwx 1 root     root   541 Jul 16  2015 Macrocell_skew_calib_M1_20140230.uic
-rwxrwxrwx 1 root     root  1.1M Jul 16  2015 att_FF_10112014_i0_checkmacros_test.out
-rwxrwxrwx 1 root     root   772 Jul 16  2015 initialvalues_Del_FF_PI_crosscheck.uic
-rwxrwxrwx 1 root     root   55K Jul 16  2015 MAP.uic
-rwxrwxrwx 1 root     root   941 Jul 16  2015 CristalSpi.h
-rwxrwxrwx 1 root     root  1.3K Jul 16  2015 initialvalues_amp_test.uic
-rwxrwxrwx 1 root     root   131 Jul 16  2015 start_kristall
-rwxrwxrwx 1 root     root   69K Jul 16  2015 checkreference_m1_04_11_2014.out
-rwxrwxrwx 1 root     root  2.3K Jul 16  2015 Status.h
-rwxrwxrwx 1 operator users  18K Jul 16  2015 CristalSpi.o
-rwxrwxrwx 1 operator users 179K Jul 16  2015 cristal.o
-rwxrwxrwx 1 operator users  40K Jul 16  2015 BBmenu.o
-rwxrwxrwx 1 operator users 8.6K Jul 16  2015 socklib.o
-rwxrwxrwx 1 operator users 205K Jul 16  2015 cristal
-rwxrwxrwx 1 root     root   714 Jul 16  2015 M1_Crab_Thresholds.uic
-rwxrwxrwx 1 root     root   714 Jul 19  2015 M2_Crab_Thresholds.uic
-rwxrw-rw- 1 root     root   18K Dec  4  2015 Amp_i0_M1_2015_11_30_out.uic
-rwxrw-rw- 1 root     root   18K Dec  4  2015 Amp_i1_M1_2015_11_30_out.uic
-rwxrw-rw- 1 root     root   12K Dec  4  2015 Del_i0_M1_2015_11_30_out.uic
-rwxrw-rw- 1 root     root   12K Dec  4  2015 Del_i1_M1_2015_11_30_out.uic
-rwxr-xr-x 1 root     root   867 Dec  4  2015 initialvalues.uic_before_2015_11_30
-rwxrwxrwx 1 root     root   869 Dec  4  2015 initialvalues.uic
-rwxrwxrwx 1 root     root   10K May  8 21:52 cristal_define.uic
-rw-r--r-- 1 root     root    30 Oct 21 21:56 crital_M1.txt
-rw-r--r-- 1 root     root     0 Oct 21 21:57 cristal_M1.txt
